2semestre/LSD/MiniProjeto/simulation/qsim/MiniProj_Demo.msim.vcd
$comment
	File created using the following command:
		vcd file MiniProj_Demo.msim.vcd -direction
$end
$date
	Tue Apr 16 09:35:35 2024
$end
$version
	Questa Intel Starter FPGA Edition Version 2023.3
$end
$timescale
	1ps
$end

$scope module selectprogram_vhd_vec_tst $end
$var wire 1 ! binInput [1] $end
$var wire 1 " binInput [0] $end
$var wire 1 # decOut_n [6] $end
$var wire 1 $ decOut_n [5] $end
$var wire 1 % decOut_n [4] $end
$var wire 1 & decOut_n [3] $end
$var wire 1 ' decOut_n [2] $end
$var wire 1 ( decOut_n [1] $end
$var wire 1 ) decOut_n [0] $end

$scope module i1 $end
$var wire 1 * gnd $end
$var wire 1 + vcc $end
$var wire 1 , unknown $end
$var wire 1 - devoe $end
$var wire 1 . devclrn $end
$var wire 1 / devpor $end
$var wire 1 0 ww_devoe $end
$var wire 1 1 ww_devclrn $end
$var wire 1 2 ww_devpor $end
$var wire 1 3 ww_binInput [1] $end
$var wire 1 4 ww_binInput [0] $end
$var wire 1 5 ww_decOut_n [6] $end
$var wire 1 6 ww_decOut_n [5] $end
$var wire 1 7 ww_decOut_n [4] $end
$var wire 1 8 ww_decOut_n [3] $end
$var wire 1 9 ww_decOut_n [2] $end
$var wire 1 : ww_decOut_n [1] $end
$var wire 1 ; ww_decOut_n [0] $end
$var wire 1 < \decOut_n[0]~output_o\ $end
$var wire 1 = \decOut_n[1]~output_o\ $end
$var wire 1 > \decOut_n[2]~output_o\ $end
$var wire 1 ? \decOut_n[3]~output_o\ $end
$var wire 1 @ \decOut_n[4]~output_o\ $end
$var wire 1 A \decOut_n[5]~output_o\ $end
$var wire 1 B \decOut_n[6]~output_o\ $end
$var wire 1 C \binInput[0]~input_o\ $end
$var wire 1 D \binInput[1]~input_o\ $end
$var wire 1 E \decOut_n~0_combout\ $end
$var wire 1 F \Equal1~0_combout\ $end
$var wire 1 G \Equal1~1_combout\ $end
$var wire 1 H \Equal3~0_combout\ $end
$var wire 1 I \ALT_INV_decOut_n~0_combout\ $end
$var wire 1 J \ALT_INV_Equal1~1_combout\ $end
$var wire 1 K \ALT_INV_Equal1~0_combout\ $end
$var wire 1 L \ALT_INV_Equal3~0_combout\ $end
$upscope $end
$upscope $end
$enddefinitions $end
#0
$dumpvars
0*
1+
x,
1-
1.
1/
10
11
12
0<
0=
1>
0?
0@
1A
0B
1C
0D
1E
1F
0G
1H
0I
1J
0K
0L
0!
1"
03
14
0#
1$
0%
0&
1'
0(
0)
05
16
07
08
19
0:
0;
$end
#5000
1!
0"
04
13
1D
0C
0F
1K
0>
1@
09
17
0'
1%
#10000
0!
1"
14
03
0D
1C
1F
0K
1>
0@
19
07
1'
0%
#15000
0"
04
0C
0E
0F
0H
1I
1K
1L
0>
1B
1@
1<
1?
09
15
17
1;
18
0'
1)
1&
1%
1#
#25000
1"
1!
14
13
1D
1C
1G
1H
0J
0L
0B
0A
05
06
0$
0#
#35000
0!
03
0D
1E
1F
0G
0I
0K
1J
1>
1A
0@
0<
0?
19
16
07
0;
08
1'
0)
0&
0%
1$
#40000
1!
0"
04
13
1D
0C
0F
1K
0>
1@
09
17
0'
1%
#45000
1"
14
1C
0E
1G
1I
0J
0A
1<
1?
06
1;
18
1)
1&
0$
#50000
0!
03
0D
1E
1F
0G
0I
0K
1J
1>
1A
0@
0<
0?
19
16
07
0;
08
1'
0)
0&
0%
1$
#65000
1!
0"
04
13
1D
0C
0F
1K
0>
1@
09
17
0'
1%
#70000
0!
1"
14
03
0D
1C
1F
0K
1>
0@
19
07
1'
0%
#75000
1!
13
1D
0E
0F
1G
1I
1K
0J
0>
0A
1@
1<
1?
09
06
17
1;
18
0'
1)
1&
1%
0$
#80000
0!
03
0D
1E
1F
0G
0I
0K
1J
1>
1A
0@
0<
0?
19
16
07
0;
08
1'
0)
0&
0%
1$
#90000
0"
04
0C
0E
0F
0H
1I
1K
1L
0>
1B
1@
1<
1?
09
15
17
1;
18
0'
1)
1&
1%
1#
#100000
1!
13
1D
1E
1H
0I
0L
0B
0<
0?
05
0;
08
0)
0&
0#
#105000
1"
14
1C
0E
1G
1I
0J
0A
1<
1?
06
1;
18
1)
1&
0$
#110000
0!
03
0D
1E
1F
0G
0I
0K
1J
1>
1A
0@
0<
0?
19
16
07
0;
08
1'
0)
0&
0%
1$
#125000
0"
04
0C
0E
0F
0H
1I
1K
1L
0>
1B
1@
1<
1?
09
15
17
1;
18
0'
1)
1&
1%
1#
#130000
1"
14
1C
1E
1F
1H
0I
0K
0L
1>
0B
0@
0<
0?
19
05
07
0;
08
1'
0)
0&
0%
0#
#135000
1!
13
1D
0E
0F
1G
1I
1K
0J
0>
0A
1@
1<
1?
09
06
17
1;
18
0'
1)
1&
1%
0$
#140000
0!
03
0D
1E
1F
0G
0I
0K
1J
1>
1A
0@
0<
0?
19
16
07
0;
08
1'
0)
0&
0%
1$
#145000
1!
13
1D
0E
0F
1G
1I
1K
0J
0>
0A
1@
1<
1?
09
06
17
1;
18
0'
1)
1&
1%
0$
#150000
0!
03
0D
1E
1F
0G
0I
0K
1J
1>
1A
0@
0<
0?
19
16
07
0;
08
1'
0)
0&
0%
1$
#155000
0"
04
0C
0E
0F
0H
1I
1K
1L
0>
1B
1@
1<
1?
09
15
17
1;
18
0'
1)
1&
1%
1#
#160000
1"
1!
14
13
1D
1C
1G
1H
0J
0L
0B
0A
05
06
0$
0#
#175000
0"
04
0C
1E
0G
0I
1J
1A
0<
0?
16
0;
08
0)
0&
1$
#180000
0!
03
0D
0E
0H
1I
1L
1B
1<
1?
15
1;
18
1)
1&
1#
#185000
1"
14
1C
1E
1F
1H
0I
0K
0L
1>
0B
0@
0<
0?
19
05
07
0;
08
1'
0)
0&
0%
0#
#190000
0"
1!
04
13
1D
0C
0F
1K
0>
1@
09
17
0'
1%
#205000
0!
03
0D
0E
0H
1I
1L
1B
1<
1?
15
1;
18
1)
1&
1#
#210000
1"
14
1C
1E
1F
1H
0I
0K
0L
1>
0B
0@
0<
0?
19
05
07
0;
08
1'
0)
0&
0%
0#
#215000
0"
1!
04
13
1D
0C
0F
1K
0>
1@
09
17
0'
1%
#220000
0!
03
0D
0E
0H
1I
1L
1B
1<
1?
15
1;
18
1)
1&
1#
#225000
1!
1"
14
13
1D
1C
1G
1H
0J
0L
0B
0A
05
06
0$
0#
#235000
0!
03
0D
1E
1F
0G
0I
0K
1J
1>
1A
0@
0<
0?
19
16
07
0;
08
1'
0)
0&
0%
1$
#240000
1!
0"
04
13
1D
0C
0F
1K
0>
1@
09
17
0'
1%
#245000
0!
03
0D
0E
0H
1I
1L
1B
1<
1?
15
1;
18
1)
1&
1#
#250000
1"
14
1C
1E
1F
1H
0I
0K
0L
1>
0B
0@
0<
0?
19
05
07
0;
08
1'
0)
0&
0%
0#
#255000
0"
04
0C
0E
0F
0H
1I
1K
1L
0>
1B
1@
1<
1?
09
15
17
1;
18
0'
1)
1&
1%
1#
#260000
1"
1!
14
13
1D
1C
1G
1H
0J
0L
0B
0A
05
06
0$
0#
#265000
0!
03
0D
1E
1F
0G
0I
0K
1J
1>
1A
0@
0<
0?
19
16
07
0;
08
1'
0)
0&
0%
1$
#270000
1!
0"
04
13
1D
0C
0F
1K
0>
1@
09
17
0'
1%
#275000
1"
14
1C
0E
1G
1I
0J
0A
1<
1?
06
1;
18
1)
1&
0$
#285000
0"
0!
04
03
0D
0C
0G
0H
1J
1L
1B
1A
15
16
1$
1#
#290000
1"
14
1C
1E
1F
1H
0I
0K
0L
1>
0B
0@
0<
0?
19
05
07
0;
08
1'
0)
0&
0%
0#
#295000
1!
13
1D
0E
0F
1G
1I
1K
0J
0>
0A
1@
1<
1?
09
06
17
1;
18
0'
1)
1&
1%
0$
#300000
0!
03
0D
1E
1F
0G
0I
0K
1J
1>
1A
0@
0<
0?
19
16
07
0;
08
1'
0)
0&
0%
1$
#310000
0"
04
0C
0E
0F
0H
1I
1K
1L
0>
1B
1@
1<
1?
09
15
17
1;
18
0'
1)
1&
1%
1#
#315000
1"
14
1C
1E
1F
1H
0I
0K
0L
1>
0B
0@
0<
0?
19
05
07
0;
08
1'
0)
0&
0%
0#
#320000
0"
1!
04
13
1D
0C
0F
1K
0>
1@
09
17
0'
1%
#330000
0!
03
0D
0E
0H
1I
1L
1B
1<
1?
15
1;
18
1)
1&
1#
#335000
1"
14
1C
1E
1F
1H
0I
0K
0L
1>
0B
0@
0<
0?
19
05
07
0;
08
1'
0)
0&
0%
0#
#340000
1!
13
1D
0E
0F
1G
1I
1K
0J
0>
0A
1@
1<
1?
09
06
17
1;
18
0'
1)
1&
1%
0$
#345000
0!
0"
04
03
0D
0C
0G
0H
1J
1L
1B
1A
15
16
1$
1#
#350000
1!
13
1D
1E
1H
0I
0L
0B
0<
0?
05
0;
08
0)
0&
0#
#355000
1"
14
1C
0E
1G
1I
0J
0A
1<
1?
06
1;
18
1)
1&
0$
#360000
0!
03
0D
1E
1F
0G
0I
0K
1J
1>
1A
0@
0<
0?
19
16
07
0;
08
1'
0)
0&
0%
1$
#365000
1!
0"
04
13
1D
0C
0F
1K
0>
1@
09
17
0'
1%
#370000
0!
03
0D
0E
0H
1I
1L
1B
1<
1?
15
1;
18
1)
1&
1#
#375000
1"
14
1C
1E
1F
1H
0I
0K
0L
1>
0B
0@
0<
0?
19
05
07
0;
08
1'
0)
0&
0%
0#
#390000
0"
04
0C
0E
0F
0H
1I
1K
1L
0>
1B
1@
1<
1?
09
15
17
1;
18
0'
1)
1&
1%
1#
#395000
1!
13
1D
1E
1H
0I
0L
0B
0<
0?
05
0;
08
0)
0&
0#
#400000
0!
1"
14
03
0D
1C
1F
0K
1>
0@
19
07
1'
0%
#405000
1!
0"
04
13
1D
0C
0F
1K
0>
1@
09
17
0'
1%
#410000
0!
03
0D
0E
0H
1I
1L
1B
1<
1?
15
1;
18
1)
1&
1#
#415000
1"
14
1C
1E
1F
1H
0I
0K
0L
1>
0B
0@
0<
0?
19
05
07
0;
08
1'
0)
0&
0%
0#
#425000
0"
04
0C
0E
0F
0H
1I
1K
1L
0>
1B
1@
1<
1?
09
15
17
1;
18
0'
1)
1&
1%
1#
#435000
1!
13
1D
1E
1H
0I
0L
0B
0<
0?
05
0;
08
0)
0&
0#
#440000
0!
1"
14
03
0D
1C
1F
0K
1>
0@
19
07
1'
0%
#445000
1!
0"
04
13
1D
0C
0F
1K
0>
1@
09
17
0'
1%
#450000
0!
1"
14
03
0D
1C
1F
0K
1>
0@
19
07
1'
0%
#455000
1!
0"
04
13
1D
0C
0F
1K
0>
1@
09
17
0'
1%
#460000
0!
1"
14
03
0D
1C
1F
0K
1>
0@
19
07
1'
0%
#465000
1!
13
1D
0E
0F
1G
1I
1K
0J
0>
0A
1@
1<
1?
09
06
17
1;
18
0'
1)
1&
1%
0$
#470000
0!
0"
04
03
0D
0C
0G
0H
1J
1L
1B
1A
15
16
1$
1#
#475000
1"
14
1C
1E
1F
1H
0I
0K
0L
1>
0B
0@
0<
0?
19
05
07
0;
08
1'
0)
0&
0%
0#
#485000
1!
13
1D
0E
0F
1G
1I
1K
0J
0>
0A
1@
1<
1?
09
06
17
1;
18
0'
1)
1&
1%
0$
#490000
0!
03
0D
1E
1F
0G
0I
0K
1J
1>
1A
0@
0<
0?
19
16
07
0;
08
1'
0)
0&
0%
1$
#495000
1!
13
1D
0E
0F
1G
1I
1K
0J
0>
0A
1@
1<
1?
09
06
17
1;
18
0'
1)
1&
1%
0$
#505000
0"
04
0C
1E
0G
0I
1J
1A
0<
0?
16
0;
08
0)
0&
1$
#515000
1"
0!
14
03
0D
1C
1F
0K
1>
0@
19
07
1'
0%
#525000
0"
04
0C
0E
0F
0H
1I
1K
1L
0>
1B
1@
1<
1?
09
15
17
1;
18
0'
1)
1&
1%
1#
#530000
1!
13
1D
1E
1H
0I
0L
0B
0<
0?
05
0;
08
0)
0&
0#
#535000
0!
1"
14
03
0D
1C
1F
0K
1>
0@
19
07
1'
0%
#540000
0"
04
0C
0E
0F
0H
1I
1K
1L
0>
1B
1@
1<
1?
09
15
17
1;
18
0'
1)
1&
1%
1#
#545000
1!
13
1D
1E
1H
0I
0L
0B
0<
0?
05
0;
08
0)
0&
0#
#550000
1"
14
1C
0E
1G
1I
0J
0A
1<
1?
06
1;
18
1)
1&
0$
#565000
0"
04
0C
1E
0G
0I
1J
1A
0<
0?
16
0;
08
0)
0&
1$
#570000
1"
14
1C
0E
1G
1I
0J
0A
1<
1?
06
1;
18
1)
1&
0$
#575000
0"
04
0C
1E
0G
0I
1J
1A
0<
0?
16
0;
08
0)
0&
1$
#580000
1"
14
1C
0E
1G
1I
0J
0A
1<
1?
06
1;
18
1)
1&
0$
#585000
0"
0!
04
03
0D
0C
0G
0H
1J
1L
1B
1A
15
16
1$
1#
#590000
1"
14
1C
1E
1F
1H
0I
0K
0L
1>
0B
0@
0<
0?
19
05
07
0;
08
1'
0)
0&
0%
0#
#595000
0"
04
0C
0E
0F
0H
1I
1K
1L
0>
1B
1@
1<
1?
09
15
17
1;
18
0'
1)
1&
1%
1#
#600000
1"
1!
14
13
1D
1C
1G
1H
0J
0L
0B
0A
05
06
0$
0#
#610000
0"
04
0C
1E
0G
0I
1J
1A
0<
0?
16
0;
08
0)
0&
1$
#615000
1"
14
1C
0E
1G
1I
0J
0A
1<
1?
06
1;
18
1)
1&
0$
#620000
0!
03
0D
1E
1F
0G
0I
0K
1J
1>
1A
0@
0<
0?
19
16
07
0;
08
1'
0)
0&
0%
1$
#625000
1!
13
1D
0E
0F
1G
1I
1K
0J
0>
0A
1@
1<
1?
09
06
17
1;
18
0'
1)
1&
1%
0$
#630000
0!
03
0D
1E
1F
0G
0I
0K
1J
1>
1A
0@
0<
0?
19
16
07
0;
08
1'
0)
0&
0%
1$
#635000
1!
0"
04
13
1D
0C
0F
1K
0>
1@
09
17
0'
1%
#640000
0!
03
0D
0E
0H
1I
1L
1B
1<
1?
15
1;
18
1)
1&
1#
#645000
1!
1"
14
13
1D
1C
1G
1H
0J
0L
0B
0A
05
06
0$
0#
#650000
0!
03
0D
1E
1F
0G
0I
0K
1J
1>
1A
0@
0<
0?
19
16
07
0;
08
1'
0)
0&
0%
1$
#655000
0"
04
0C
0E
0F
0H
1I
1K
1L
0>
1B
1@
1<
1?
09
15
17
1;
18
0'
1)
1&
1%
1#
#660000
1"
1!
14
13
1D
1C
1G
1H
0J
0L
0B
0A
05
06
0$
0#
#665000
0!
03
0D
1E
1F
0G
0I
0K
1J
1>
1A
0@
0<
0?
19
16
07
0;
08
1'
0)
0&
0%
1$
#675000
1!
13
1D
0E
0F
1G
1I
1K
0J
0>
0A
1@
1<
1?
09
06
17
1;
18
0'
1)
1&
1%
0$
#680000
0"
04
0C
1E
0G
0I
1J
1A
0<
0?
16
0;
08
0)
0&
1$
#690000
0!
03
0D
0E
0H
1I
1L
1B
1<
1?
15
1;
18
1)
1&
1#
#695000
1"
14
1C
1E
1F
1H
0I
0K
0L
1>
0B
0@
0<
0?
19
05
07
0;
08
1'
0)
0&
0%
0#
#700000
0"
04
0C
0E
0F
0H
1I
1K
1L
0>
1B
1@
1<
1?
09
15
17
1;
18
0'
1)
1&
1%
1#
#705000
1"
1!
14
13
1D
1C
1G
1H
0J
0L
0B
0A
05
06
0$
0#
#710000
0!
03
0D
1E
1F
0G
0I
0K
1J
1>
1A
0@
0<
0?
19
16
07
0;
08
1'
0)
0&
0%
1$
#715000
1!
0"
04
13
1D
0C
0F
1K
0>
1@
09
17
0'
1%
#720000
0!
03
0D
0E
0H
1I
1L
1B
1<
1?
15
1;
18
1)
1&
1#
#725000
1!
13
1D
1E
1H
0I
0L
0B
0<
0?
05
0;
08
0)
0&
0#
#730000
0!
1"
14
03
0D
1C
1F
0K
1>
0@
19
07
1'
0%
#735000
0"
04
0C
0E
0F
0H
1I
1K
1L
0>
1B
1@
1<
1?
09
15
17
1;
18
0'
1)
1&
1%
1#
#740000
1!
13
1D
1E
1H
0I
0L
0B
0<
0?
05
0;
08
0)
0&
0#
#745000
0!
1"
14
03
0D
1C
1F
0K
1>
0@
19
07
1'
0%
#750000
0"
04
0C
0E
0F
0H
1I
1K
1L
0>
1B
1@
1<
1?
09
15
17
1;
18
0'
1)
1&
1%
1#
#755000
1"
14
1C
1E
1F
1H
0I
0K
0L
1>
0B
0@
0<
0?
19
05
07
0;
08
1'
0)
0&
0%
0#
#765000
1!
13
1D
0E
0F
1G
1I
1K
0J
0>
0A
1@
1<
1?
09
06
17
1;
18
0'
1)
1&
1%
0$
#770000
0!
03
0D
1E
1F
0G
0I
0K
1J
1>
1A
0@
0<
0?
19
16
07
0;
08
1'
0)
0&
0%
1$
#785000
1!
13
1D
0E
0F
1G
1I
1K
0J
0>
0A
1@
1<
1?
09
06
17
1;
18
0'
1)
1&
1%
0$
#790000
0"
04
0C
1E
0G
0I
1J
1A
0<
0?
16
0;
08
0)
0&
1$
#795000
0!
03
0D
0E
0H
1I
1L
1B
1<
1?
15
1;
18
1)
1&
1#
#800000
1!
1"
14
13
1D
1C
1G
1H
0J
0L
0B
0A
05
06
0$
0#
#805000
0!
0"
04
03
0D
0C
0G
0H
1J
1L
1B
1A
15
16
1$
1#
#810000
1!
1"
14
13
1D
1C
1G
1H
0J
0L
0B
0A
05
06
0$
0#
#815000
0!
03
0D
1E
1F
0G
0I
0K
1J
1>
1A
0@
0<
0?
19
16
07
0;
08
1'
0)
0&
0%
1$
#820000
1!
0"
04
13
1D
0C
0F
1K
0>
1@
09
17
0'
1%
#830000
0!
1"
14
03
0D
1C
1F
0K
1>
0@
19
07
1'
0%
#835000
1!
13
1D
0E
0F
1G
1I
1K
0J
0>
0A
1@
1<
1?
09
06
17
1;
18
0'
1)
1&
1%
0$
#840000
0"
04
0C
1E
0G
0I
1J
1A
0<
0?
16
0;
08
0)
0&
1$
#855000
1"
0!
14
03
0D
1C
1F
0K
1>
0@
19
07
1'
0%
#865000
1!
13
1D
0E
0F
1G
1I
1K
0J
0>
0A
1@
1<
1?
09
06
17
1;
18
0'
1)
1&
1%
0$
#870000
0!
03
0D
1E
1F
0G
0I
0K
1J
1>
1A
0@
0<
0?
19
16
07
0;
08
1'
0)
0&
0%
1$
#875000
1!
13
1D
0E
0F
1G
1I
1K
0J
0>
0A
1@
1<
1?
09
06
17
1;
18
0'
1)
1&
1%
0$
#880000
0!
0"
04
03
0D
0C
0G
0H
1J
1L
1B
1A
15
16
1$
1#
#885000
1!
13
1D
1E
1H
0I
0L
0B
0<
0?
05
0;
08
0)
0&
0#
#890000
0!
1"
14
03
0D
1C
1F
0K
1>
0@
19
07
1'
0%
#900000
0"
04
0C
0E
0F
0H
1I
1K
1L
0>
1B
1@
1<
1?
09
15
17
1;
18
0'
1)
1&
1%
1#
#910000
1!
13
1D
1E
1H
0I
0L
0B
0<
0?
05
0;
08
0)
0&
0#
#915000
1"
14
1C
0E
1G
1I
0J
0A
1<
1?
06
1;
18
1)
1&
0$
#920000
0!
03
0D
1E
1F
0G
0I
0K
1J
1>
1A
0@
0<
0?
19
16
07
0;
08
1'
0)
0&
0%
1$
#925000
1!
0"
04
13
1D
0C
0F
1K
0>
1@
09
17
0'
1%
#930000
0!
1"
14
03
0D
1C
1F
0K
1>
0@
19
07
1'
0%
#935000
1!
13
1D
0E
0F
1G
1I
1K
0J
0>
0A
1@
1<
1?
09
06
17
1;
18
0'
1)
1&
1%
0$
#940000
0!
0"
04
03
0D
0C
0G
0H
1J
1L
1B
1A
15
16
1$
1#
#945000
1!
1"
14
13
1D
1C
1G
1H
0J
0L
0B
0A
05
06
0$
0#
#950000
0!
03
0D
1E
1F
0G
0I
0K
1J
1>
1A
0@
0<
0?
19
16
07
0;
08
1'
0)
0&
0%
1$
#960000
0"
04
0C
0E
0F
0H
1I
1K
1L
0>
1B
1@
1<
1?
09
15
17
1;
18
0'
1)
1&
1%
1#
#965000
1"
14
1C
1E
1F
1H
0I
0K
0L
1>
0B
0@
0<
0?
19
05
07
0;
08
1'
0)
0&
0%
0#
#980000
0"
1!
04
13
1D
0C
0F
1K
0>
1@
09
17
0'
1%
#985000
1"
0!
14
03
0D
1C
1F
0K
1>
0@
19
07
1'
0%
